<svg width="7" height="7" viewBox="0 0 7 7" fill="none" xmlns="http://www.w3.org/2000/svg">
<g clip-path="url(#clip0_48_131)">
<path fill-rule="evenodd" clip-rule="evenodd" d="M6.34974 1.10777C6.41775 1.17579 6.4408 1.27676 6.40902 1.36755L4.65622 6.37555C4.6223 6.47245 4.53267 6.53884 4.43008 6.54302C4.3275 6.54721 4.23276 6.48835 4.19106 6.39453L3.22857 4.22893L1.06298 3.26645C0.96916 3.22475 0.9103 3.13001 0.914486 3.02742C0.918671 2.92484 0.985053 2.8352 1.08196 2.80129L6.08996 1.04849C6.18075 1.01671 6.28172 1.03975 6.34974 1.10777ZM3.71694 4.09468L4.39218 5.61398L5.57385 2.23777L3.71694 4.09468ZM5.21973 1.88365L1.84353 3.06533L3.36282 3.74057L5.21973 1.88365Z" fill="white"/>
</g>
<defs>
<clipPath id="clip0_48_131">
<rect width="6.0096" height="6.0096" fill="white" transform="translate(0.663879 0.784058)"/>
</clipPath>
</defs>
</svg>
